<svg xmlns="http://www.w3.org/2000/svg" viewBox="491 843 25 22.268">
  <defs>
    <style>
      .cls-1 {
        fill: orange;
      }

      .cls-1, .cls-2 {
        fill-rule: evenodd;
      }

      .cls-2 {
        fill: #fff;
      }
    </style>
  </defs>
  <g id="Group_102" data-name="Group 102" transform="translate(-1178 674)">
    <g id="Group_43" data-name="Group 43" transform="translate(1391 12.001)">
      <path id="Path_15" data-name="Path 15" class="cls-1" d="M-460.967-781.341a1.824,1.824,0,0,1,1.225.912q3.91,6.745,7.839,13.479c.86,1.478,1.733,2.949,2.575,4.438a2.548,2.548,0,0,1,.053,2.507,1.46,1.46,0,0,1-1.225.815,8.316,8.316,0,0,1-.855.029q-5.622,0-11.244,0h-8.759c-.286,0-.571.011-.857,0a1.656,1.656,0,0,1-1.7-1.459,2.758,2.758,0,0,1,.326-1.983q5.213-8.968,10.418-17.94a1.744,1.744,0,0,1,1.211-.809c.135-.031.274-.048.411-.071C-461.546-781.429-461.128-781.378-460.967-781.341Z" transform="translate(751.971 938.428)"/>
    </g>
    <path id="path" class="cls-2" d="M8.045,14.393,4.561,10.909,3.4,12.07l4.645,4.645L18,6.761,16.839,5.6Z" transform="translate(1670 173.284)"/>
  </g>
</svg>
