<?xml version="1.0"?>
<svg xmlns="http://www.w3.org/2000/svg" xmlns:xlink="http://www.w3.org/1999/xlink" version="1.1" id="Capa_1" x="0px" y="0px" width="512px" height="512px" viewBox="0 0 438.536 438.536" style="enable-background:new 0 0 438.536 438.536;" xml:space="preserve" class=""><g><g>
	<linearGradient id="enum_write"
                      x1="0%" y1="0%"
                      x2="100%" y2="0%"
                       spreadMethod="pad"
                    gradientTransform="rotate(45)">
        <stop offset="0%" stop-color="#c1851c" stop-opacity="1"/>
      	<stop offset="100%" stop-color="#ccb999" stop-opacity="1"/>
      </linearGradient>
	<path d="M414.41,24.123C398.333,8.042,378.963,0,356.315,0H82.228C59.58,0,40.21,8.042,24.126,24.123   C8.045,40.207,0.003,59.576,0.003,82.225v274.084c0,22.647,8.042,42.018,24.123,58.102c16.084,16.084,35.454,24.126,58.102,24.126   h274.084c22.648,0,42.018-8.042,58.095-24.126c16.084-16.084,24.126-35.454,24.126-58.102V82.225   C438.532,59.576,430.49,40.204,414.41,24.123z" style="fill:url(#enum_write);stroke-width: 3;" data-original="#000000" class="active-path" data-old_color="#000000" fill="#EFB44E"/>
</g></g> </svg>
