<svg xmlns="http://www.w3.org/2000/svg" viewBox="839 273 70.656 53">
  <defs>
    <style>
      .cls-1 {
        fill: #2de026;
        fill-rule: evenodd;
      }
    </style>
  </defs>
  <g id="Group_118" data-name="Group 118" transform="translate(839 273)">
    <path id="Path_19" data-name="Path 19" class="cls-1" d="M-203.458-203.088h5.167l-2.157,7.865,10.927-10.927h-5.139l2.494-8.316-.133-.076-11.159,11.455m26.337-20.9V-209.2h2.865v-5.855h8.835v23.522H-174.2v-5.7h-2.932c0,.757-.018,1.531.007,2.3a1.251,1.251,0,0,1-.405,1.024c-3.643,3.618-7.264,7.257-10.909,10.873a1.386,1.386,0,0,1-.879.372q-8.461.033-16.922,0a1.391,1.391,0,0,1-.882-.367q-4.03-3.979-8.012-8.006a1.437,1.437,0,0,0-1.141-.463c-2.667.022-5.336.01-8.08.01v-5.763h-2.89v5.717h-8.835v-23.521h8.774v5.835h2.914v-5.885h1.02c2.394,0,4.789.016,7.183-.019a1.592,1.592,0,0,0,1-.419q3.986-3.925,7.915-7.908a1.589,1.589,0,0,1,1.261-.506c3.407.019,6.815.01,10.222.01h.8v-2.878h-8.739v-8.82h23.667v8.773h-8.768v2.89Z" transform="translate(236.076 235.646)"/>
  </g>
</svg>
