<svg xmlns="http://www.w3.org/2000/svg" viewBox="1334 221 25 25">
  <defs>
    <style>
      .cls-1 {
        fill: #e4e4e4;
      }
    </style>
  </defs>
  <g id="Symbol_1" data-name="Symbol 1" transform="translate(-183 -71)">
    <rect id="Rectangle_37" data-name="Rectangle 37" class="cls-1" width="25" height="25" transform="translate(1517 292)"/>
  </g>
</svg>
