<svg xmlns="http://www.w3.org/2000/svg" xmlns:xlink="http://www.w3.org/1999/xlink" viewBox="265 773 41.92 55.931">
  <defs>
    <style>
      .cls-1 {
        fill: none;
      }

      .cls-2 {
        clip-path: url(#clip-path);
      }

      .cls-3 {
        fill: #c70d0d;
      }
    </style>
    <clipPath id="clip-path">
      <path id="Path_8" data-name="Path 8" class="cls-1" d="M0-512.283H41.92v55.931H0Z" transform="translate(0 512.283)"/>
    </clipPath>
  </defs>
  <g id="Group_1" data-name="Group 1" transform="translate(265 773)">
    <g id="Group_10" data-name="Group 10" class="cls-2">
      <g id="Group_9" data-name="Group 9" transform="translate(0 0)">
        <path id="Path_7" data-name="Path 7" class="cls-3" d="M-56.953-169.793a13.952,13.952,0,0,0,13.978,14.146,13.9,13.9,0,0,0,13.951-13.892A13.915,13.915,0,0,0-43-183.577a13.984,13.984,0,0,0-13.951,13.784m34.94-1.127v2.62c-.057.279-.125.556-.169.837A30.579,30.579,0,0,1-24.491-160,84.345,84.345,0,0,1-35.7-141.577c-2.028,2.579-4.05,5.19-6.949,6.905h-.764a5.923,5.923,0,0,1-.907-.575c-1.164-1.066-2.383-2.087-3.438-3.255A78.6,78.6,0,0,1-56-149.674a69.147,69.147,0,0,1-6.465-12.809,20.519,20.519,0,0,1-1.119-11.228,21,21,0,0,1,26.7-15.935c7.848,2.5,12.642,7.947,14.448,15.99.2.9.285,1.823.423,2.736" transform="translate(63.933 190.603)"/>
      </g>
    </g>
  </g>
</svg>
