<?xml version="1.0" standalone="no"?>
<!DOCTYPE svg PUBLIC "-//W3C//DTD SVG 20010904//EN"
 "http://www.w3.org/TR/2001/REC-SVG-20010904/DTD/svg10.dtd">
<svg version="1.0" xmlns="http://www.w3.org/2000/svg"
 width="520.000000pt" height="515.000000pt" viewBox="0 0 520.000000 515.000000"
 preserveAspectRatio="xMidYMid meet">

<g transform="translate(0.000000,515.000000) scale(0.100000,-0.100000)"
fill="#ffffff" stroke="none">
<path d="M2265 5138 c-126 -14 -360 -64 -484 -103 -660 -210 -1223 -697 -1526
-1319 -82 -167 -142 -332 -185 -506 -55 -225 -70 -354 -70 -610 0 -432 78
-773 260 -1145 327 -667 948 -1170 1666 -1351 370 -93 800 -100 1188 -18 547
115 1073 441 1435 889 326 405 510 848 562 1360 15 149 7 479 -16 625 -63 406
-195 746 -413 1065 -428 627 -1067 1017 -1813 1110 -136 17 -469 19 -604 3z
m597 -184 c668 -79 1304 -476 1681 -1049 390 -594 501 -1333 300 -1995 -188
-617 -625 -1144 -1189 -1432 -364 -187 -699 -269 -1093 -269 -193 0 -319 13
-486 48 -838 175 -1529 801 -1788 1621 -77 242 -107 447 -107 730 0 331 53
596 176 890 259 619 750 1091 1378 1326 360 135 728 178 1128 130z"/>
<path d="M3150 3962 c-42 -19 -68 -53 -168 -223 -400 -681 -465 -790 -472
-782 -4 4 -51 143 -105 308 -207 642 -190 602 -263 632 -20 8 -46 12 -61 8
-69 -17 -1099 -390 -1123 -407 -14 -10 -34 -39 -44 -64 -20 -53 -27 -23 86
-369 37 -115 95 -294 129 -398 33 -103 87 -269 120 -370 61 -187 256 -790 317
-978 36 -111 61 -147 119 -169 34 -13 50 -10 160 30 535 192 738 261 752 256
9 -4 102 -62 207 -129 182 -116 193 -122 243 -122 71 0 84 14 230 265 66 113
176 302 246 420 777 1327 757 1292 757 1341 0 31 -7 57 -23 80 -16 24 -147
114 -462 317 -242 156 -470 301 -506 323 -63 37 -104 47 -139 31z m489 -502
l420 -271 -17 -29 c-9 -17 -21 -30 -25 -30 -4 0 -157 98 -340 217 -183 119
-369 241 -415 270 l-82 53 15 30 c9 17 18 30 20 30 3 0 194 -122 424 -270z
m-1566 150 c-4 -5 -165 -64 -358 -133 -192 -69 -400 -143 -461 -165 l-111 -40
-11 35 c-10 33 -9 35 16 44 15 6 225 81 467 168 l440 157 13 -29 c7 -17 10
-33 5 -37z m1422 -393 c220 -143 404 -263 409 -268 5 -4 -9 -38 -31 -76 -53
-91 -451 -772 -648 -1108 -87 -148 -168 -287 -179 -307 -12 -21 -24 -38 -29
-38 -4 0 -45 25 -90 55 l-84 56 33 34 c54 58 53 87 -11 286 -66 203 -158 486
-222 683 -37 114 -43 143 -34 163 6 13 112 196 237 408 147 250 230 383 237
378 7 -4 192 -124 412 -266z m-1013 -842 c66 -203 141 -435 168 -515 26 -80
45 -148 41 -152 -3 -3 -202 -76 -441 -161 -239 -86 -447 -160 -462 -166 -27
-10 -28 -9 -42 37 -8 26 -129 400 -269 832 -140 432 -257 794 -258 805 -4 21
-42 6 661 258 l265 96 108 -332 c60 -183 163 -498 229 -702z"/>
<path d="M2965 2857 c-32 -27 -40 -66 -50 -230 -9 -136 0 -167 50 -191 31 -15
47 -14 242 14 114 17 222 37 240 45 41 18 67 67 59 110 -9 46 -51 85 -92 85
-32 0 -225 -25 -273 -36 -24 -5 -24 -5 -17 64 8 75 -1 109 -35 141 -31 29 -90
28 -124 -2z"/>
<path d="M1993 2910 c-30 -12 -45 -39 -88 -157 l-37 -101 -97 59 c-111 68
-151 75 -198 35 -24 -21 -28 -32 -28 -74 0 -63 11 -75 128 -146 51 -30 98 -59
105 -64 9 -6 3 -33 -28 -115 -22 -59 -40 -119 -40 -133 0 -37 25 -78 55 -92
73 -33 118 2 165 127 19 50 38 91 42 91 5 0 45 -23 91 -51 109 -68 166 -68
202 1 37 72 12 112 -118 191 l-104 64 24 65 c68 177 74 201 63 235 -6 18 -19
40 -29 49 -23 21 -78 29 -108 16z"/>
</g>
</svg>
