<?xml version="1.0" encoding="utf-8"?>
<!-- Generator: Adobe Illustrator 22.1.0, SVG Export Plug-In . SVG Version: 6.00 Build 0)  -->
<svg version="1.1" id="Layer_1" xmlns="http://www.w3.org/2000/svg" xmlns:xlink="http://www.w3.org/1999/xlink" x="0px" y="0px"
	 viewBox="0 0 500 500" style="enable-background:new 0 0 500 500;" xml:space="preserve">
<style type="text/css">
	.st0{fill:url(#SVGID_1_);}
	.st1{fill:#00552E;}
	.st2{fill:#0C9950;}
	.st3{filter:url(#Adobe_OpacityMaskFilter);}
	.st4{filter:url(#Adobe_OpacityMaskFilter_1_);}
	.st5{mask:url(#SVGID_2_);fill:url(#SVGID_3_);}
	.st6{fill:url(#SVGID_4_);}
	.st7{opacity:0.9;fill:#FFFFFF;}
</style>
<g>
	<radialGradient id="SVGID_1_" cx="219.8532" cy="272.5613" r="219.1771" gradientUnits="userSpaceOnUse">
		<stop  offset="0" style="stop-color:#45B65B"/>
		<stop  offset="0.2169" style="stop-color:#41B159"/>
		<stop  offset="0.4585" style="stop-color:#34A454"/>
		<stop  offset="0.7119" style="stop-color:#208E4B"/>
		<stop  offset="0.972" style="stop-color:#036F3F"/>
		<stop  offset="1" style="stop-color:#006B3D"/>
	</radialGradient>
	<path class="st0" d="M486.2,421.4c0,35.8-29,64.9-64.9,64.9H80.6c-35.9,0-64.9-29.1-64.9-64.9V80.7c0-35.8,29.1-64.9,64.9-64.9
		h340.7c35.8,0,64.9,29.1,64.9,64.9V421.4z"/>
	<path class="st1" d="M421.3,5H80.5C38.8,5,4.8,39,4.8,80.7v340.7c0,41.7,34,75.7,75.7,75.7h340.7c41.7,0,75.7-34,75.7-75.7V80.7
		C497,39,463,5,421.3,5z M475.4,421.4c0,29.8-24.3,54.1-54.1,54.1H80.5c-29.8,0-54.1-24.3-54.1-54.1V80.7
		c0-29.8,24.3-54.1,54.1-54.1h340.7c29.8,0,54.1,24.3,54.1,54.1V421.4z"/>
	<path class="st2" d="M413.3,16.5H88.5c-39.8,0-72.2,32.4-72.2,72.2v324.8c0,39.8,32.4,72.2,72.2,72.2h324.8
		c39.8,0,72.2-32.4,72.2-72.2V88.7C485.5,48.9,453.1,16.5,413.3,16.5z M464.9,413.5c0,28.4-23.1,51.6-51.6,51.6H88.5
		C60.1,465,37,441.9,37,413.5V88.7c0-28.4,23.1-51.6,51.6-51.6h324.8c28.4,0,51.6,23.1,51.6,51.6V413.5z"/>
	<defs>
		<filter id="Adobe_OpacityMaskFilter" filterUnits="userSpaceOnUse" x="44.5" y="44.6" width="412.8" height="412.9">
			<feFlood  style="flood-color:white;flood-opacity:1" result="back"/>
			<feBlend  in="SourceGraphic" in2="back" mode="normal"/>
		</filter>
	</defs>
	<mask maskUnits="userSpaceOnUse" x="44.5" y="44.6" width="412.8" height="412.9" id="SVGID_2_">
		<g class="st3">
			<defs>
				<filter id="Adobe_OpacityMaskFilter_1_" filterUnits="userSpaceOnUse" x="44.5" y="44.6" width="412.8" height="412.9">
					<feFlood  style="flood-color:white;flood-opacity:1" result="back"/>
					<feBlend  in="SourceGraphic" in2="back" mode="normal"/>
				</filter>
			</defs>
			<mask maskUnits="userSpaceOnUse" x="44.5" y="44.6" width="412.8" height="412.9" id="SVGID_2_">
				<g class="st4">
				</g>
			</mask>
			<linearGradient id="SVGID_3_" gradientUnits="userSpaceOnUse" x1="250.9106" y1="457.4992" x2="250.9106" y2="44.6458">
				<stop  offset="0" style="stop-color:#000000"/>
				<stop  offset="0.147" style="stop-color:#030303"/>
				<stop  offset="0.2755" style="stop-color:#0E0E0E"/>
				<stop  offset="0.3971" style="stop-color:#202020"/>
				<stop  offset="0.5143" style="stop-color:#393939"/>
				<stop  offset="0.6287" style="stop-color:#5A5A5A"/>
				<stop  offset="0.7407" style="stop-color:#828282"/>
				<stop  offset="0.8509" style="stop-color:#B1B1B1"/>
				<stop  offset="0.9569" style="stop-color:#E7E7E7"/>
				<stop  offset="1" style="stop-color:#FFFFFF"/>
			</linearGradient>
			<path class="st5" d="M457.3,101.6c-4.7,213.5-355.9,355.9-355.9,355.9c-31.4,0-56.9-25.5-56.9-56.9v-299
				c0-31.4,25.5-56.9,56.9-56.9h299C431.8,44.6,457.3,70.1,457.3,101.6L457.3,101.6z"/>
		</g>
	</mask>
	<linearGradient id="SVGID_4_" gradientUnits="userSpaceOnUse" x1="250.9106" y1="457.4992" x2="250.9106" y2="44.6458">
		<stop  offset="2.659255e-03" style="stop-color:#67BE64"/>
		<stop  offset="0.1857" style="stop-color:#6ABF67"/>
		<stop  offset="0.3456" style="stop-color:#75C472"/>
		<stop  offset="0.4968" style="stop-color:#86CB84"/>
		<stop  offset="0.6427" style="stop-color:#9FD69D"/>
		<stop  offset="0.7848" style="stop-color:#BFE4BE"/>
		<stop  offset="0.9222" style="stop-color:#E6F4E5"/>
		<stop  offset="1" style="stop-color:#FFFFFF"/>
	</linearGradient>
	<path class="st6" d="M457.3,101.6c-4.7,213.5-355.9,355.9-355.9,355.9c-31.4,0-56.9-25.5-56.9-56.9v-299
		c0-31.4,25.5-56.9,56.9-56.9h299C431.8,44.6,457.3,70.1,457.3,101.6L457.3,101.6z"/>
</g>
<path class="st7" d="M410.6,150.3c-7.2-7.2-19-7.2-26.2,0L236.7,298c-7.2,7.2-19,7.2-26.2,0l-82.5-82.5c-7.2-7.2-19-7.2-26.2,0
	L81,236.4c-7.2,7.2-7.2,19,0,26.2l82.5,82.5c7.2,7.2,19,19,26.2,26.2l20.9,20.9c7.2,7.2,19,7.2,26.2,0l20.9-20.9
	c7.2-7.2,19-19,26.2-26.2l147.7-147.7c7.2-7.2,7.2-19,0-26.2L410.6,150.3z"/>
</svg>
