<?xml version="1.0" encoding="utf-8"?>
<!-- Generator: Adobe Illustrator 21.0.0, SVG Export Plug-In . SVG Version: 6.00 Build 0)  -->
<svg version="1.1" id="Layer_2" xmlns="http://www.w3.org/2000/svg" xmlns:xlink="http://www.w3.org/1999/xlink" x="0px" y="0px"
	 viewBox="0 0 500 500" style="enable-background:new 0 0 500 500;" xml:space="preserve">
<style type="text/css">
	.st0{fill:#004278;}
	.st1{fill:#FFFFFF;}
</style>
<g>
	<path class="st0" d="M481.3,490H18.7c-4.8,0-8.7-3.9-8.7-8.7V18.7c0-4.8,3.9-8.7,8.7-8.7h462.5c4.8,0,8.7,3.9,8.7,8.7v462.5
		C490,486.1,486.1,490,481.3,490z"/>
	<g>
		<path class="st1" d="M250,438.7C146,438.7,61.3,354,61.3,250C61.3,146,146,61.3,250,61.3S438.7,146,438.7,250
			C438.7,354,354,438.7,250,438.7z M250,75c-96.5,0-175,78.5-175,175c0,96.5,78.5,175,175,175s175-78.5,175-175
			C425,153.5,346.5,75,250,75z"/>
		<g>
			<path class="st1" d="M277.4,253.1h64.2c0.1,2.3,0.1,4.3,0.1,6.1c0,24.8-8.1,44.6-24.4,59.5C301.1,333.6,279.7,341,253,341
				c-31.9,0-55.6-9.1-71.3-27.2s-23.5-39.6-23.5-64.4c0-26,8-47.5,24-64.7c16-17.2,37.7-25.8,65.1-25.8c24.6,0,45.2,7.5,61.9,22.5
				v-19.7h22.5v58h-22.5c-4.2-9.7-11.7-18.4-22.5-25.9c-10.8-7.6-23.1-11.4-37-11.4c-19.3,0-34.5,6.5-45.7,19.5
				c-11.2,13-16.7,28.7-16.7,47.1c0,21.1,6.4,37.8,19.1,50.1c12.7,12.3,28.1,18.5,46,18.5c14,0,26.6-3.9,37.5-11.7
				c11-7.8,17.4-18.1,19.3-30.8h-31.8V253.1z"/>
		</g>
	</g>
</g>
</svg>
