<?xml version="1.0" encoding="utf-8"?>
<!-- Generator: Adobe Illustrator 21.0.0, SVG Export Plug-In . SVG Version: 6.00 Build 0)  -->
<svg version="1.1" id="Layer_2" xmlns="http://www.w3.org/2000/svg" xmlns:xlink="http://www.w3.org/1999/xlink" x="0px" y="0px"
	 viewBox="0 0 500 500" style="enable-background:new 0 0 500 500;" xml:space="preserve">
<style type="text/css">
	.st0{fill:#FFFFFF;}
	.st1{fill:#A6A8AB;}
	.st2{fill:url(#SVGID_1_);}
	.st3{fill:#231F20;}
</style>
<g>
	<g>
		<path class="st0" d="M454.9,321.4H45.3c-19.4,0-35.2-15.8-35.2-35.2v-69.9c0-19.4,15.8-35.2,35.2-35.2h409.6
			c19.4,0,35.2,15.8,35.2,35.2v69.9C490.1,305.6,474.3,321.4,454.9,321.4z"/>
	</g>
	<g>
		<g>
			<path class="st1" d="M454.9,321.4H45.3c-19.4,0-35.2-15.8-35.2-35.2v-69.9c0-19.4,15.8-35.2,35.2-35.2h409.6
				c19.4,0,35.2,15.8,35.2,35.2v69.9C490.1,305.6,474.3,321.4,454.9,321.4z M45.3,191.7c-13.6,0-24.6,11-24.6,24.6v69.9
				c0,13.6,11,24.6,24.6,24.6h409.6c13.6,0,24.6-11,24.6-24.6v-69.9c0-13.6-11-24.6-24.6-24.6H45.3z"/>
		</g>
		<linearGradient id="SVGID_1_" gradientUnits="userSpaceOnUse" x1="42.2477" y1="252.8006" x2="204.9914" y2="252.8006">
			<stop  offset="0" style="stop-color:#EC1C24"/>
			<stop  offset="1" style="stop-color:#7A0800"/>
		</linearGradient>
		<path class="st2" d="M202.5,293.3H44.7c-1.4,0-2.5-1.1-2.5-2.5v-76.1c0-1.4,1.1-2.5,2.5-2.5h157.8c1.4,0,2.5,1.1,2.5,2.5v76.1
			C205,292.2,203.9,293.3,202.5,293.3z"/>
		<g>
			<path class="st3" d="M332.3,270.7c-2.9,2.9-7,4.4-12.4,4.4c-5.4,0-9.5-1.5-12.4-4.4c-3.8-3.6-5.7-8.8-5.7-15.6
				c0-6.9,1.9-12.1,5.7-15.6c2.9-2.9,7-4.4,12.4-4.4c5.4,0,9.5,1.5,12.4,4.4c3.8,3.5,5.7,8.7,5.7,15.6
				C338,261.9,336.1,267.1,332.3,270.7z M327.4,264.9c1.8-2.3,2.8-5.6,2.8-9.9c0-4.2-0.9-7.5-2.8-9.8c-1.8-2.3-4.3-3.5-7.5-3.5
				c-3.1,0-5.6,1.2-7.5,3.5c-1.9,2.3-2.8,5.6-2.8,9.8c0,4.3,0.9,7.5,2.8,9.9c1.9,2.3,4.4,3.5,7.5,3.5
				C323.1,268.4,325.5,267.2,327.4,264.9z"/>
			<path class="st3" d="M344.1,236.3h27v6.6h-19.1v8.7h16.7v6.6h-16.7V274h-7.8V236.3z"/>
			<path class="st3" d="M376.1,236.3h27v6.6H384v8.7h16.7v6.6H384V274h-7.8V236.3z"/>
		</g>
	</g>
</g>
</svg>
