<?xml version="1.0" encoding="utf-8"?>
<!-- Generator: Adobe Illustrator 22.1.0, SVG Export Plug-In . SVG Version: 6.00 Build 0)  -->
<svg version="1.1" id="Layer_1" xmlns="http://www.w3.org/2000/svg" xmlns:xlink="http://www.w3.org/1999/xlink" x="0px" y="0px"
	 viewBox="0 0 500 500" style="enable-background:new 0 0 500 500;" xml:space="preserve">
<style type="text/css">
	.st0{fill:url(#SVGID_1_);}
	.st1{fill:url(#SVGID_2_);}
	.st2{fill:url(#SVGID_3_);}
	.st3{fill:url(#SVGID_4_);}
	.st4{fill:url(#SVGID_5_);}
	.st5{fill:#EC1C24;}
</style>
<g>
	<g>
		<linearGradient id="SVGID_1_" gradientUnits="userSpaceOnUse" x1="248.7406" y1="472.8355" x2="248.7406" y2="30.0014">
			<stop  offset="0" style="stop-color:#FBB817"/>
			<stop  offset="0.8655" style="stop-color:#FDD500"/>
			<stop  offset="1" style="stop-color:#FBB817"/>
		</linearGradient>
		<path class="st0" d="M92.3,472.8c-33.6,0-61.4-14.4-76.2-40.1c-14.8-25.6-13.6-56.9,3.2-86l156.5-271c16.8-29.1,43.4-45.8,73-45.8
			c29.6,0,56.2,16.7,73,45.8l156.5,271.1c16.8,29.1,18,60.2,3.2,85.9c-14.8,25.6-42.6,40.1-76.2,40.1H92.3z"/>
		<linearGradient id="SVGID_2_" gradientUnits="userSpaceOnUse" x1="248.7396" y1="449.1739" x2="248.7396" y2="54.0835">
			<stop  offset="0" style="stop-color:#000000"/>
			<stop  offset="0.1345" style="stop-color:#383838"/>
			<stop  offset="1" style="stop-color:#000000"/>
		</linearGradient>
		<path class="st1" d="M92.3,449.2c-24.8,0-45-10.2-55.4-28.2c-10.4-18-9.2-40.6,3.2-62.1l156.5-271c12.4-21.5,31.4-33.8,52.2-33.8
			c20.8,0,39.8,12.3,52.2,33.8l156.5,271c12.4,21.5,13.6,44,3.2,62c-10.4,18-30.6,28.2-55.4,28.2H92.3z"/>
		<linearGradient id="SVGID_3_" gradientUnits="userSpaceOnUse" x1="248.7399" y1="445.6247" x2="248.7399" y2="56.7003">
			<stop  offset="0" style="stop-color:#000000"/>
			<stop  offset="0.8655" style="stop-color:#383838"/>
			<stop  offset="1" style="stop-color:#000000"/>
		</linearGradient>
		<path class="st2" d="M92.3,445.6c-23.8,0-43.2-9.3-53.1-26.4c-9.9-17.1-8.7-38.5,3.2-59.2L198.9,89.1
			c11.9-20.6,30.1-32.4,49.9-32.4c19.8,0,38,11.9,49.9,32.5l156.5,271.1c11.9,20.6,13.1,41.8,3.2,58.9c-9.9,17.1-29.2,26.5-53,26.5
			H92.3z"/>
		<linearGradient id="SVGID_4_" gradientUnits="userSpaceOnUse" x1="248.7399" y1="420.78" x2="248.7399" y2="83.4942">
			<stop  offset="0" style="stop-color:#000000"/>
			<stop  offset="0.1345" style="stop-color:#383838"/>
			<stop  offset="1" style="stop-color:#000000"/>
		</linearGradient>
		<path class="st3" d="M275.5,102.6c-14.7-25.5-38.8-25.5-53.5,0L65.5,374.1c-14.7,25.5-2.7,46.7,26.7,46.7h313
			c29.4,0,41.4-21.3,26.7-46.7L275.5,102.6z"/>
		<linearGradient id="SVGID_5_" gradientUnits="userSpaceOnUse" x1="248.7404" y1="416.0477" x2="248.7404" y2="86.0913">
			<stop  offset="0" style="stop-color:#FBB817"/>
			<stop  offset="0.8655" style="stop-color:#FDD500"/>
			<stop  offset="1" style="stop-color:#FBB817"/>
		</linearGradient>
		<path class="st4" d="M92.3,416c-13.2,0-23-3.8-27.6-11.7c-4.6-7.9-3.4-18.3,3.2-29.7l156.5-270.9c6.6-11.5,15.3-17.7,24.4-17.7
			c9.1,0,17.8,6.3,24.4,17.8L429.6,375c6.6,11.5,7.7,21.5,3.2,29.4c-4.6,7.9-14.4,11.7-27.6,11.7H92.3z"/>
	</g>
	<g>
		<path class="st5" d="M248.7,383.5c-6,0-11.2-2.2-15.5-6.4c-4.3-4.3-6.5-9.5-6.5-15.6c0-6.1,2.2-11.3,6.4-15.6
			c4.3-4.3,9.5-6.4,15.6-6.4c6.2,0,11.5,2.2,15.8,6.4c4.3,4.3,6.4,9.5,6.4,15.6c0,6.1-2.2,11.3-6.5,15.6
			C260.1,381.3,254.8,383.5,248.7,383.5z M239.6,328.5l-12-140.8c-0.6-5.4-0.6-6.8-0.6-7.6c0-8.2,1.9-14.4,5.7-18.4
			c3.8-4.1,9.4-6.2,16.5-6.2c6.3,0,11.5,2,15.4,5.9c4,3.9,6,9.2,6,15.7c0,2-0.3,4.9-0.8,9.4l-12.6,142H239.6z">
			<animate xmlns="http://www.w3.org/2000/svg" attributeType="XML" attributeName="fill" values="#bb0d00;#e21202;#ff1200;#ff3d2e" dur="1s" repeatCount="indefinite"/>
			</path>
	</g>
</g>
</svg>
