<?xml version="1.0" encoding="iso-8859-1"?>
<!-- Generator: Adobe Illustrator 19.0.0, SVG Export Plug-In . SVG Version: 6.00 Build 0)  -->
<svg version="1.1" id="Capa_1" xmlns="http://www.w3.org/2000/svg" xmlns:xlink="http://www.w3.org/1999/xlink" x="0px" y="0px"
	 viewBox="0 0 512 512" style="enable-background:new 0 0 512 512;" xml:space="preserve">
<g>
	<g>
		<path d="M448,384h-3.712C425.92,345.259,416,302.656,416,260.267v-58.453c0-77.909-56.619-142.784-131.051-156.395
			C286.869,41.323,288,36.8,288,32c0-17.643-14.357-32-32-32c-17.643,0-32,14.357-32,32c0,4.8,1.131,9.323,3.051,13.419
			C152.619,59.029,96,123.904,96,201.813v58.453c0,42.389-9.92,84.992-28.288,123.733H64c-17.643,0-32,14.357-32,32
			c0,17.643,14.357,32,32,32h118.421c5.227,36.096,36.075,64,73.579,64c37.504,0,68.352-27.904,73.579-64H448
			c17.643,0,32-14.357,32-32C480,398.357,465.643,384,448,384z M256,21.333c5.888,0,10.667,4.8,10.667,10.667
			S261.888,42.667,256,42.667c-5.888,0-10.667-4.8-10.667-10.667S250.112,21.333,256,21.333z M117.333,260.267v-58.453
			C117.333,125.803,179.541,64,256,64s138.667,61.803,138.667,137.813v58.453c0,42.027,9.344,84.16,26.517,123.733H90.859
			C107.904,344.853,117.333,302.528,117.333,260.267z M256,490.667c-25.749,0-47.296-18.347-52.245-42.667h104.512
			C303.296,472.32,281.749,490.667,256,490.667z M448,426.667H64c-5.888,0-10.667-4.8-10.667-10.667
			c0-5.867,4.779-10.667,10.667-10.667h384c5.888,0,10.667,4.8,10.667,10.667C458.667,421.867,453.888,426.667,448,426.667z"/>
	</g>
</g>
<g>
</g>
<g>
</g>
<g>
</g>
<g>
</g>
<g>
</g>
<g>
</g>
<g>
</g>
<g>
</g>
<g>
</g>
<g>
</g>
<g>
</g>
<g>
</g>
<g>
</g>
<g>
</g>
<g>
</g>
</svg>
