<?xml version="1.0" encoding="iso-8859-1"?>
<!-- Generator: Adobe Illustrator 19.0.0, SVG Export Plug-In . SVG Version: 6.00 Build 0)  -->
<svg xmlns="http://www.w3.org/2000/svg" xmlns:xlink="http://www.w3.org/1999/xlink" version="1.1" id="Layer_1" x="0px" y="0px" viewBox="0 0 512 512" style="enable-background:new 0 0 512 512;" xml:space="preserve" width="512px" height="512px">
<g>
	<g>
		<path d="M256,0C144.748,0,54.239,90.51,54.239,201.761c0,96.646,68.31,177.625,159.18,197.225v58.952    c0,4.907,3.978,8.885,8.885,8.885h1.829v36.291c0,4.907,3.978,8.885,8.885,8.885h45.968c4.908,0,8.885-3.978,8.885-8.885v-36.291    h1.83c4.908,0,8.885-3.978,8.885-8.885v-58.955c90.867-19.603,159.173-100.58,159.173-197.222C457.761,90.51,367.251,0,256,0z     M270.103,494.229h-28.197v-27.406h28.197V494.229z M280.818,449.053h-49.628v-47.058c8.133,1.002,16.411,1.526,24.809,1.526    c8.402,0,16.683-0.525,24.819-1.527V449.053z M256,385.75c-101.453,0-183.99-82.538-183.99-183.99S154.547,17.771,256,17.771    s183.99,82.538,183.99,183.99S357.453,385.75,256,385.75z" fill="#FFFFFF"/>
	</g>
</g>
<g>
	<g>
		<path d="M256.001,31.203c-94.046,0-170.558,76.512-170.558,170.558s76.512,170.558,170.558,170.558    s170.558-76.512,170.558-170.558C426.558,107.715,350.046,31.203,256.001,31.203z M256.001,354.548    c-84.247,0-152.787-68.54-152.787-152.787s68.54-152.787,152.787-152.787s152.787,68.54,152.787,152.787    C408.787,286.008,340.248,354.548,256.001,354.548z" fill="#FFFFFF"/>
	</g>
</g>
<g>
	<g>
		<path d="M313.098,258.106H198.902c-4.907,0-8.885,3.978-8.885,8.885v44.93c0,4.907,3.978,8.885,8.885,8.885h114.197    c4.908,0,8.885-3.978,8.885-8.885v-44.93C321.984,262.084,318.005,258.106,313.098,258.106z M228.209,303.036h-20.422v-27.159    h20.422V303.036z M266.021,303.036H245.98v-27.159h20.042V303.036z M304.213,303.036h-20.421v-27.159h20.421V303.036z" fill="#FFFFFF"/>
	</g>
</g>
<g>
	<g>
		<path d="M264.885,178.086v-42.14c0-4.907-3.977-8.885-8.885-8.885s-8.885,3.978-8.885,8.885v42.141    c-9.582,3.61-16.43,12.845-16.43,23.674c0,13.958,11.357,25.314,25.315,25.314s25.315-11.355,25.315-25.315    C281.315,190.93,274.467,181.696,264.885,178.086z M256,209.304c-4.159,0-7.544-3.384-7.544-7.544    c0-4.161,3.383-7.544,7.544-7.544s7.544,3.385,7.544,7.544C263.544,205.919,260.159,209.304,256,209.304z" fill="#FFFFFF"/>
	</g>
</g>
<g>
	<g>
		<path d="M256,62.697c-4.908,0-8.885,3.978-8.885,8.885V93.18c0,4.907,3.978,8.885,8.885,8.885c4.907,0,8.885-3.978,8.885-8.885    V71.583C264.885,66.676,260.908,62.697,256,62.697z" fill="#FFFFFF"/>
	</g>
</g>
<g>
	<g>
		<path d="M227.213,96.689l-7.387-20.295c-1.679-4.611-6.78-6.987-11.389-5.311c-4.612,1.679-6.989,6.777-5.311,11.389l7.388,20.295    c1.314,3.609,4.72,5.849,8.35,5.849c1.009,0,2.035-0.173,3.038-0.538C226.514,106.399,228.89,101.301,227.213,96.689z" fill="#FFFFFF"/>
	</g>
</g>
<g>
	<g>
		<path d="M193.012,112.871L179.13,96.326c-3.155-3.759-8.759-4.25-12.518-1.095c-3.759,3.155-4.25,8.759-1.095,12.518    l13.882,16.544c1.757,2.095,4.274,3.174,6.811,3.174c2.015,0,4.042-0.682,5.707-2.079    C195.677,122.235,196.167,116.631,193.012,112.871z" fill="#FFFFFF"/>
	</g>
</g>
<g>
	<g>
		<path d="M166.41,139.776l-18.704-10.799c-4.251-2.455-9.684-0.998-12.137,3.252s-0.997,9.684,3.252,12.137l18.704,10.799    c1.399,0.808,2.927,1.192,4.434,1.192c3.071,0,6.057-1.593,7.703-4.444C172.115,147.664,170.659,142.229,166.41,139.776z" fill="#FFFFFF"/>
	</g>
</g>
<g>
	<g>
		<path d="M150.613,174.156l-21.27-3.751c-4.828-0.853-9.441,2.374-10.293,7.207c-0.852,4.832,2.375,9.441,7.208,10.293l21.27,3.751    c0.521,0.092,1.04,0.136,1.553,0.136c4.231,0,7.98-3.033,8.74-7.344C158.672,179.616,155.445,175.008,150.613,174.156z" fill="#FFFFFF"/>
	</g>
</g>
<g>
	<g>
		<path d="M385.744,215.616l-21.269-3.751c-4.841-0.852-9.442,2.374-10.293,7.207c-0.853,4.832,2.374,9.441,7.207,10.293    l21.269,3.751c0.522,0.092,1.041,0.136,1.554,0.136c4.231,0,7.979-3.033,8.74-7.344    C393.803,221.076,390.576,216.468,385.744,215.616z" fill="#FFFFFF"/>
	</g>
</g>
<g>
	<g>
		<path d="M157.819,219.073c-0.852-4.834-5.454-8.06-10.293-7.208l-21.27,3.751c-4.832,0.852-8.06,5.46-7.208,10.293    c0.761,4.311,4.509,7.344,8.74,7.344c0.512,0,1.032-0.045,1.553-0.136l21.27-3.751    C155.445,228.514,158.671,223.906,157.819,219.073z" fill="#FFFFFF"/>
	</g>
</g>
<g>
	<g>
		<path d="M392.951,177.613c-0.852-4.834-5.46-8.057-10.293-7.207l-21.269,3.751c-4.834,0.851-8.061,5.459-7.208,10.292    c0.761,4.311,4.509,7.344,8.74,7.344c0.513,0,1.032-0.045,1.554-0.136l21.269-3.751    C390.577,187.054,393.804,182.445,392.951,177.613z" fill="#FFFFFF"/>
	</g>
</g>
<g>
	<g>
		<path d="M376.433,132.229c-2.452-4.251-7.889-5.706-12.137-3.252l-18.704,10.799c-4.25,2.454-5.706,7.888-3.252,12.137    c1.646,2.85,4.632,4.444,7.703,4.444c1.507,0,3.036-0.384,4.434-1.192l18.704-10.799    C377.43,141.913,378.886,136.479,376.433,132.229z" fill="#FFFFFF"/>
	</g>
</g>
<g>
	<g>
		<path d="M345.389,95.232c-3.759-3.155-9.364-2.663-12.518,1.096l-13.882,16.544c-3.155,3.759-2.664,9.364,1.095,12.518    c1.665,1.397,3.692,2.079,5.707,2.079c2.536,0,5.054-1.08,6.811-3.174l13.882-16.544    C349.638,103.99,349.148,98.385,345.389,95.232z" fill="#FFFFFF"/>
	</g>
</g>
<g>
	<g>
		<path d="M303.561,71.083c-4.612-1.679-9.71,0.7-11.387,5.311l-7.385,20.295c-1.679,4.612,0.699,9.711,5.311,11.389    c1.003,0.365,2.028,0.538,3.036,0.538c3.63,0,7.037-2.24,8.351-5.849l7.385-20.295C310.55,77.86,308.172,72.761,303.561,71.083z" fill="#FFFFFF"/>
	</g>
</g>
<g>
</g>
<g>
</g>
<g>
</g>
<g>
</g>
<g>
</g>
<g>
</g>
<g>
</g>
<g>
</g>
<g>
</g>
<g>
</g>
<g>
</g>
<g>
</g>
<g>
</g>
<g>
</g>
<g>
</g>
</svg>
