<?xml version='1.0' encoding='iso-8859-1'?>
<!DOCTYPE svg PUBLIC '-//W3C//DTD SVG 1.1//EN' 'http://www.w3.org/Graphics/SVG/1.1/DTD/svg11.dtd'>
<svg version="1.1" xmlns="http://www.w3.org/2000/svg" viewBox="0 0 463.405 463.405" xmlns:xlink="http://www.w3.org/1999/xlink" enable-background="new 0 0 463.405 463.405">
  <path fill="#6f7588" d="m450.905,232.675h-25.366l-13.909-136.765c-0.649-6.381-6.022-11.235-12.436-11.235h-181.897c-6.414,0-11.787,4.854-12.436,11.235l-13.909,136.765h-24.427v-94.052c0-6.903-5.596-12.5-12.5-12.5h-113.569c-5.487,0-10.333,3.579-11.947,8.824l-27.956,90.843c-0.366,1.191-0.553,2.43-0.553,3.677v90.855c0,6.903 5.596,12.5 12.5,12.5h44.343c1.31,25.536 22.497,45.909 48.353,45.909s47.043-20.373 48.353-45.909h0.428c0.016,0 0.032,0.002 0.048,0.002h126.183c1.311,25.535 22.498,45.906 48.353,45.906 14.234,0 27.052-6.176 35.918-15.987 8.867,9.811 21.684,15.987 35.918,15.987 25.855,0 47.042-20.371 48.353-45.906h2.155c6.904,0 12.5-5.597 12.5-12.5v-75.15c-5.68434e-14-6.903-5.596-12.499-12.5-12.499zm-155.159,0h-56.096l56.096-91.284v91.284zm25-91.284l56.095,91.284h-56.095v-91.284zm78.519,80.024l-68.666-111.74h57.302l11.364,111.74zm-170.675-111.74h57.302l-68.666,111.739 11.364-111.739zm-178.902,41.448h38.053v65.842h-58.315l20.262-65.842zm55.508,202.608c-12.913,0-23.418-10.505-23.418-23.418 0-12.913 10.505-23.418 23.418-23.418s23.418,10.505 23.418,23.418c0,12.912-10.506,23.418-23.418,23.418zm0-71.837c-18.582,0-34.744,10.528-42.858,25.928h-37.338v-65.857h75.241c6.904,0 12.5-5.596 12.5-12.5v-78.342h28.784v147.233c-8.88-10.082-21.87-16.462-36.329-16.462zm61.329-24.219h271.88v42.697c-8.874-11.241-22.608-18.477-38.008-18.477-14.234,0-27.051,6.176-35.918,15.987-8.867-9.811-21.684-15.987-35.918-15.987-18.583,0-34.745,10.529-42.859,25.93h-119.177v-50.15zm162.036,96.056c-12.913,0-23.418-10.505-23.418-23.418 0-12.913 10.505-23.418 23.418-23.418 12.913,0 23.418,10.505 23.418,23.418 0,12.912-10.505,23.418-23.418,23.418zm71.836,0c-12.913,0-23.418-10.505-23.418-23.418 0-12.913 10.505-23.418 23.418-23.418s23.418,10.505 23.418,23.418c0,12.912-10.505,23.418-23.418,23.418z"/>
</svg>
