<?xml version="1.0"?>
<svg xmlns="http://www.w3.org/2000/svg" xmlns:xlink="http://www.w3.org/1999/xlink" version="1.1" id="Capa_1" x="0px" y="0px" viewBox="0 0 440.747 440.747" style="enable-background:new 0 0 440.747 440.747;" xml:space="preserve" width="512px" height="512px" class=""><g transform="matrix(0.94148 0 0 0.94148 12.8962 12.8962)"><g>
	<g>
		<path d="M187.307,91.733h-4.053c-5.891,0-10.667,4.776-10.667,10.667v4.053c0,5.891,4.776,10.667,10.667,10.667h4.053    c5.891,0,10.667-4.776,10.667-10.667V102.4C197.973,96.509,193.198,91.733,187.307,91.733z" data-original="#000000" class="active-path" fill="#000000"/>
	</g>
</g><g>
	<g>
		<path d="M221.653,91.733H217.6c-5.891,0-10.667,4.776-10.667,10.667v4.053c0,5.891,4.776,10.667,10.667,10.667h4.053    c5.891,0,10.667-4.776,10.667-10.667V102.4C232.32,96.509,227.544,91.733,221.653,91.733z" data-original="#000000" class="active-path" fill="#000000"/>
	</g>
</g><g>
	<g>
		<path d="M256.213,91.733h-4.053c-5.891,0-10.667,4.776-10.667,10.667v4.053c0,5.891,4.776,10.667,10.667,10.667h4.053    c5.891,0,10.667-4.776,10.667-10.667V102.4C266.88,96.509,262.104,91.733,256.213,91.733z" data-original="#000000" class="active-path" fill="#000000"/>
	</g>
</g><g>
	<g>
		<path d="M187.307,134.827h-4.053c-5.891,0-10.667,4.776-10.667,10.667v4.267c0,5.891,4.776,10.667,10.667,10.667h4.053    c5.891,0,10.667-4.776,10.667-10.667v-4.267C197.973,139.602,193.198,134.827,187.307,134.827z" data-original="#000000" class="active-path" fill="#000000"/>
	</g>
</g><g>
	<g>
		<path d="M221.653,134.827H217.6c-5.891,0-10.667,4.776-10.667,10.667v4.267c0,5.891,4.776,10.667,10.667,10.667h4.053    c5.891,0,10.667-4.776,10.667-10.667v-4.267C232.32,139.602,227.544,134.827,221.653,134.827z" data-original="#000000" class="active-path" fill="#000000"/>
	</g>
</g><g>
	<g>
		<path d="M256.213,134.827h-4.053c-5.891,0-10.667,4.776-10.667,10.667v4.267c0,5.891,4.776,10.667,10.667,10.667h4.053    c5.891,0,10.667-4.776,10.667-10.667v-4.267C266.88,139.602,262.104,134.827,256.213,134.827z" data-original="#000000" class="active-path" fill="#000000"/>
	</g>
</g><g>
	<g>
		<path d="M187.307,177.92h-4.053c-5.891,0-10.667,4.776-10.667,10.667v4.48c0,5.891,4.776,10.667,10.667,10.667h4.053    c5.891,0,10.667-4.776,10.667-10.667v-4.48C197.973,182.696,193.198,177.92,187.307,177.92z" data-original="#000000" class="active-path" fill="#000000"/>
	</g>
</g><g>
	<g>
		<path d="M221.653,177.92H217.6c-5.891,0-10.667,4.776-10.667,10.667v4.48c0,5.891,4.776,10.667,10.667,10.667h4.053    c5.891,0,10.667-4.776,10.667-10.667v-4.48C232.32,182.696,227.544,177.92,221.653,177.92z" data-original="#000000" class="active-path" fill="#000000"/>
	</g>
</g><g>
	<g>
		<path d="M256.213,177.92h-4.053c-5.891,0-10.667,4.776-10.667,10.667v4.48c0,5.891,4.776,10.667,10.667,10.667h4.053    c5.891,0,10.667-4.776,10.667-10.667v-4.48C266.88,182.696,262.104,177.92,256.213,177.92z" data-original="#000000" class="active-path" fill="#000000"/>
	</g>
</g><g>
	<g>
		<path d="M187.307,221.227h-4.053c-5.891,0-10.667,4.776-10.667,10.667v4.48c0,5.891,4.776,10.667,10.667,10.667h4.053    c5.891,0,10.667-4.776,10.667-10.667v-4.48C197.973,226.002,193.198,221.227,187.307,221.227z" data-original="#000000" class="active-path" fill="#000000"/>
	</g>
</g><g>
	<g>
		<path d="M221.653,221.227H217.6c-5.891,0-10.667,4.776-10.667,10.667v4.48c0,5.891,4.776,10.667,10.667,10.667h4.053    c5.891,0,10.667-4.776,10.667-10.667v-4.48C232.32,226.002,227.544,221.227,221.653,221.227z" data-original="#000000" class="active-path" fill="#000000"/>
	</g>
</g><g>
	<g>
		<path d="M256.213,221.227h-4.053c-5.891,0-10.667,4.776-10.667,10.667v4.48c0,5.891,4.776,10.667,10.667,10.667h4.053    c5.891,0,10.667-4.776,10.667-10.667v-4.48C266.88,226.002,262.104,221.227,256.213,221.227z" data-original="#000000" class="active-path" fill="#000000"/>
	</g>
</g><g>
	<g>
		<path d="M187.307,264.32h-4.053c-5.891,0-10.667,4.776-10.667,10.667v4.693c0,5.891,4.776,10.667,10.667,10.667h4.053    c5.891,0,10.667-4.776,10.667-10.667v-4.693C197.973,269.096,193.198,264.32,187.307,264.32z" data-original="#000000" class="active-path" fill="#000000"/>
	</g>
</g><g>
	<g>
		<path d="M221.653,264.32H217.6c-5.891,0-10.667,4.776-10.667,10.667v4.693c0,5.891,4.776,10.667,10.667,10.667h4.053    c5.891,0,10.667-4.776,10.667-10.667v-4.693C232.32,269.096,227.544,264.32,221.653,264.32z" data-original="#000000" class="active-path" fill="#000000"/>
	</g>
</g><g>
	<g>
		<path d="M256.213,264.32h-4.053c-5.891,0-10.667,4.776-10.667,10.667v4.693c0,5.891,4.776,10.667,10.667,10.667h4.053    c5.891,0,10.667-4.776,10.667-10.667v-4.693C266.88,269.096,262.104,264.32,256.213,264.32z" data-original="#000000" class="active-path" fill="#000000"/>
	</g>
</g><g>
	<g>
		<path d="M187.307,307.413h-4.053c-5.891,0-10.667,4.776-10.667,10.667v4.907c0,5.891,4.776,10.667,10.667,10.667h4.053    c5.891,0,10.667-4.776,10.667-10.667v-4.907C197.973,312.189,193.198,307.413,187.307,307.413z" data-original="#000000" class="active-path" fill="#000000"/>
	</g>
</g><g>
	<g>
		<path d="M221.653,307.413H217.6c-5.891,0-10.667,4.776-10.667,10.667v4.907c0,5.891,4.776,10.667,10.667,10.667h4.053    c5.891,0,10.667-4.776,10.667-10.667v-4.907C232.32,312.189,227.544,307.413,221.653,307.413z" data-original="#000000" class="active-path" fill="#000000"/>
	</g>
</g><g>
	<g>
		<path d="M256.213,307.413h-4.053c-5.891,0-10.667,4.776-10.667,10.667v4.907c0,5.891,4.776,10.667,10.667,10.667h4.053    c5.891,0,10.667-4.776,10.667-10.667v-4.907C266.88,312.189,262.104,307.413,256.213,307.413z" data-original="#000000" class="active-path" fill="#000000"/>
	</g>
</g><g>
	<g>
		<path d="M187.307,350.72h-4.053c-5.891,0-10.667,4.776-10.667,10.667v5.12c0,5.891,4.776,10.667,10.667,10.667h4.053    c5.891,0,10.667-4.776,10.667-10.667v-5.12C197.973,355.496,193.198,350.72,187.307,350.72z" data-original="#000000" class="active-path" fill="#000000"/>
	</g>
</g><g>
	<g>
		<path d="M221.653,350.72H217.6c-5.891,0-10.667,4.776-10.667,10.667v5.12c0,5.891,4.776,10.667,10.667,10.667h4.053    c5.891,0,10.667-4.776,10.667-10.667v-5.12C232.32,355.496,227.544,350.72,221.653,350.72z" data-original="#000000" class="active-path" fill="#000000"/>
	</g>
</g><g>
	<g>
		<path d="M256.213,350.72h-4.053c-5.891,0-10.667,4.776-10.667,10.667v5.12c0,5.891,4.776,10.667,10.667,10.667h4.053    c5.891,0,10.667-4.776,10.667-10.667v-5.12C266.88,355.496,262.104,350.72,256.213,350.72z" data-original="#000000" class="active-path" fill="#000000"/>
	</g>
</g><g>
	<g>
		<path d="M394.24,419.413h-7.893v-183.04c0-5.891-4.776-10.667-10.667-10.667h-29.867v-13.44c0-5.891-4.776-10.667-10.667-10.667    c-5.891,0-10.667,4.776-10.667,10.667v13.44h-18.773V65.92c0-5.891-4.776-10.667-10.667-10.667h-32v-26.88    c0-5.891-4.776-10.667-10.667-10.667H231.04v-7.04C231.04,4.776,226.264,0,220.373,0s-10.667,4.776-10.667,10.667v7.68h-21.333    c-5.65-0.01-10.328,4.387-10.667,10.027v26.88H143.36c-5.891,0-10.667,4.776-10.667,10.667v159.787h-17.92v-13.44    c0-5.891-4.776-10.667-10.667-10.667s-10.667,4.776-10.667,10.667v13.44H64.853c-5.891,0-10.667,4.776-10.667,10.667v183.04h-7.68    c-5.891,0-10.667,4.776-10.667,10.667c0,5.891,4.776,10.667,10.667,10.667H394.24c5.891,0,10.667-4.776,10.667-10.667    C404.907,424.189,400.131,419.413,394.24,419.413z M132.693,419.413H75.52V247.04h57.173V419.413z M199.04,39.68h42.667v15.573    H199.04V39.68z M284.373,419.413H232.32V404.48c0-5.891-4.776-10.667-10.667-10.667H217.6c-5.891,0-10.667,4.776-10.667,10.667    v14.933h-52.907V76.587h130.347V419.413z M365.013,419.413h-59.307V247.04h59.307V419.413z" data-original="#000000" class="active-path" fill="#000000"/>
	</g>
</g></g> </svg>
