<?xml version="1.0" encoding="iso-8859-1"?>
<!-- Generator: Adobe Illustrator 19.0.0, SVG Export Plug-In . SVG Version: 6.00 Build 0)  -->
<svg version="1.1" id="Layer_1" xmlns="http://www.w3.org/2000/svg" xmlns:xlink="http://www.w3.org/1999/xlink" x="0px" y="0px"
	 viewBox="0 0 512.001 512.001" style="enable-background:new 0 0 512.001 512.001;" xml:space="preserve">
<g>
	<g>
		<g>
			<path fill="#94d67e" d="M116.364,309.621c-23.332,0-42.314,18.982-42.314,42.314s18.982,42.314,42.314,42.314s42.314-18.982,42.314-42.314
				S139.696,309.621,116.364,309.621z M116.364,373.092c-11.666,0-21.157-9.491-21.157-21.157c0-11.666,9.491-21.157,21.157-21.157
				s21.157,9.491,21.157,21.157C137.521,363.601,128.03,373.092,116.364,373.092z"/>
			<path fill="#94d67e" d="M303.933,362.513c-5.833,0-10.578,4.745-10.578,10.578s4.745,10.578,10.578,10.578s10.579-4.745,10.579-10.578
				S309.765,362.513,303.933,362.513z"/>
			<path fill="#94d67e" d="M509.558,405.075l-88.859-106.974c-3.284-3.954-8.935-4.975-13.392-2.421c-4.46,2.553-6.44,7.941-4.695,12.775
				c4.256,11.781,6.622,26.064,5.445,40.97l-57.286-67.745l-7.065-52.221c-0.71-5.246-5.188-9.16-10.482-9.16h-27.209
				L282.528,96.595h14.729c5.841,0,10.578-4.736,10.578-10.579c0-5.842-4.737-10.578-10.578-10.578H111.074
				c-5.841,0-10.579,4.736-10.579,10.578c0,5.843,4.737,10.579,10.579,10.579h8.463v61.881l-42.252-13.572
				c-0.006-0.002-0.012-0.002-0.018-0.005c-1.185-0.489-2.896-0.501-3.207-0.501c-0.003,0-0.006,0-0.01,0H10.579
				C4.737,144.397,0,149.133,0,154.976v200.992c0,5.843,4.737,10.579,10.579,10.579h22.445c6.945,39.722,41.659,70.017,83.34,70.017
				s76.395-30.296,83.34-70.017h41.095c-0.221,2.153-0.336,4.336-0.336,6.546c0,34.998,28.473,63.471,63.471,63.471
				s63.471-28.473,63.471-63.471c0-11.574-3.129-22.424-8.563-31.778l-2.791-20.628l46.168,54.596
				c-3.931,10.173-9.923,20.141-18.527,29.315c-2.885,3.076-3.668,7.571-1.992,11.441c1.677,3.87,5.49,6.375,9.708,6.375h110.016
				c4.101,0,7.833-2.371,9.577-6.084C512.74,412.616,512.18,408.23,509.558,405.075z M284.479,220.298H191.82v-83.251h76.852
				L284.479,220.298z M140.694,96.595h120.299l3.663,19.295h-83.415c-5.841,0-10.578,4.736-10.578,10.579v48.428l-29.969-9.626
				V96.595z M140.694,187.494l29.969,9.626v23.178h-29.969V187.494z M84.628,169.485l34.909,11.213v39.6H84.628V169.485z
				 M116.364,415.406c-34.998,0-63.471-28.473-63.471-63.471s28.473-63.471,63.471-63.471s63.471,28.473,63.471,63.471
				S151.362,415.406,116.364,415.406z M246.838,345.389h-46.124c-3.357-43.614-39.891-78.082-84.35-78.082
				s-80.993,34.468-84.35,78.082H21.157V165.554h42.314v65.322c0,5.843,4.737,10.578,10.579,10.578h249.93l3.498,25.852h-52.437
				c-5.841,0-10.578,4.736-10.578,10.578c0,5.842,4.737,10.578,10.578,10.578h55.299l3.908,28.878
				c-9.013-4.921-19.343-7.721-30.315-7.721C278.862,309.621,257.145,324.235,246.838,345.389z M303.933,415.406
				c-23.332,0-42.314-18.982-42.314-42.314s18.982-42.314,42.314-42.314s42.314,18.982,42.314,42.314
				S327.264,415.406,303.933,415.406z M412.847,401.256c11.983-19.261,16.674-40.041,16.67-59.43l49.367,59.43H412.847z"/>
			<path fill="#94d67e" d="M237.223,267.307h-1.058c-5.841,0-10.578,4.736-10.578,10.578c0,5.842,4.737,10.578,10.578,10.578h1.058
				c5.841,0,10.578-4.736,10.578-10.578S243.065,267.307,237.223,267.307z"/>
		</g>
	</g>
</g>
<g>
</g>
<g>
</g>
<g>
</g>
<g>
</g>
<g>
</g>
<g>
</g>
<g>
</g>
<g>
</g>
<g>
</g>
<g>
</g>
<g>
</g>
<g>
</g>
<g>
</g>
<g>
</g>
<g>
</g>
</svg>
