<?xml version="1.0" encoding="iso-8859-1"?>
<!-- Generator: Adobe Illustrator 17.1.0, SVG Export Plug-In . SVG Version: 6.00 Build 0)  -->
<!DOCTYPE svg PUBLIC "-//W3C//DTD SVG 1.1//EN" "http://www.w3.org/Graphics/SVG/1.1/DTD/svg11.dtd">
<svg version="1.1" id="Capa_1" xmlns="http://www.w3.org/2000/svg" xmlns:xlink="http://www.w3.org/1999/xlink" x="0px" y="0px"
	 viewBox="0 0 511 511" style="enable-background:new 0 0 511 511;" xml:space="preserve">
<g>
	<path fill="#5acbf9" d="M510.85,270.002c-0.103-0.508-0.258-0.996-0.458-1.461l-32.052-75.351c-5.86-15.072-20.637-25.19-36.817-25.19H399.5
		c-12.958,0-23.5,10.542-23.5,23.5V312h-81v-17.396c35.913-3.761,64-34.212,64-71.105v-16c0-39.425-32.075-71.5-71.5-71.5H207v-8.5
		c0-12.958-10.542-23.5-23.5-23.5h-8c-12.958,0-23.5,10.542-23.5,23.5v8.5H71.5C32.075,136,0,168.075,0,207.5v16
		c0,36.892,28.087,67.344,64,71.105V312H7.5c-4.142,0-7.5,3.358-7.5,7.5s3.358,7.5,7.5,7.5h13.406C12.912,335.504,8,346.936,8,359.5
		C8,385.691,29.309,407,55.5,407c16.782,0,31.548-8.756,40-21.932c8.452,13.176,23.218,21.932,40,21.932
		c23.639,0,43.295-17.36,46.902-40H216v0.5c0,12.958,10.542,23.5,23.5,23.5h48c12.958,0,23.5-10.542,23.5-23.5V367h65.598
		c3.607,22.64,23.263,40,46.902,40s43.295-17.36,46.902-40H495.5c8.547,0,15.5-6.953,15.5-15.5v-79.978
		C511.002,271.017,510.953,270.508,510.85,270.002z M496,320h-8.5c-0.257,0-0.5-0.243-0.5-0.5v-8c0-0.257,0.243-0.5,0.5-0.5h8.5V320
		z M488.757,256H439.5c-9.098,0-16.5-7.402-16.5-16.5V215h48.316L488.757,256z M376.598,352h-66.832c-3.138-9.29-11.93-16-22.266-16
		h-48c-10.336,0-19.128,6.71-22.266,16h-34.832c-1.528-9.589-5.938-18.224-12.308-25h218.812
		C382.536,333.776,378.125,342.411,376.598,352z M167,127.5c0-4.687,3.813-8.5,8.5-8.5h8c4.687,0,8.5,3.813,8.5,8.5v8.5h-25V127.5z
		 M15,223.5v-16c0-31.154,25.346-56.5,56.5-56.5H88v16.5c0,4.142,3.358,7.5,7.5,7.5s7.5-3.358,7.5-7.5V151h153v16.5
		c0,4.142,3.358,7.5,7.5,7.5s7.5-3.358,7.5-7.5V151h16.5c31.154,0,56.5,25.346,56.5,56.5v16c0,31.154-25.346,56.5-56.5,56.5H271
		v-80.5c0-4.142-3.358-7.5-7.5-7.5s-7.5,3.358-7.5,7.5V280H103v-80.5c0-4.142-3.358-7.5-7.5-7.5s-7.5,3.358-7.5,7.5V280H71.5
		C40.346,280,15,254.654,15,223.5z M79,295h201v17H79V295z M100.906,327c-2.007,2.135-3.817,4.455-5.406,6.932
		c-1.589-2.477-3.399-4.797-5.406-6.932H100.906z M55.5,392C37.58,392,23,377.421,23,359.5S37.58,327,55.5,327S88,341.579,88,359.5
		S73.42,392,55.5,392z M135.5,392c-17.92,0-32.5-14.579-32.5-32.5s14.58-32.5,32.5-32.5s32.5,14.579,32.5,32.5S153.42,392,135.5,392
		z M296,367.5c0,4.687-3.813,8.5-8.5,8.5h-48c-4.687,0-8.5-3.813-8.5-8.5v-8c0-4.687,3.813-8.5,8.5-8.5h48
		c4.687,0,8.5,3.813,8.5,8.5V367.5z M423.5,392c-17.92,0-32.5-14.579-32.5-32.5s14.58-32.5,32.5-32.5s32.5,14.579,32.5,32.5
		S441.42,392,423.5,392z M495.5,352h-25.098c-3.607-22.64-23.263-40-46.902-40H391V191.5c0-4.687,3.813-8.5,8.5-8.5h42.022
		c10.064,0,19.254,6.312,22.867,15.705c0.031,0.082,0.064,0.163,0.099,0.243l0.447,1.052H415.5c-4.142,0-7.5,3.358-7.5,7.5v32
		c0,17.369,14.131,31.5,31.5,31.5h55.637l0.863,2.028V296h-8.5c-8.547,0-15.5,6.953-15.5,15.5v8c0,8.547,6.953,15.5,15.5,15.5h8.5
		v16.5C496,351.775,495.776,352,495.5,352z"/>
	<path fill="#5acbf9" d="M55.5,344c-8.547,0-15.5,6.953-15.5,15.5S46.953,375,55.5,375S71,368.047,71,359.5S64.047,344,55.5,344z M55.5,360
		c-0.276,0-0.5-0.225-0.5-0.5s0.224-0.5,0.5-0.5s0.5,0.225,0.5,0.5S55.776,360,55.5,360z"/>
	<path fill="#5acbf9" d="M135.5,344c-8.547,0-15.5,6.953-15.5,15.5s6.953,15.5,15.5,15.5s15.5-6.953,15.5-15.5S144.047,344,135.5,344z M135.5,360
		c-0.276,0-0.5-0.225-0.5-0.5s0.224-0.5,0.5-0.5s0.5,0.225,0.5,0.5S135.776,360,135.5,360z"/>
	<path fill="#5acbf9" d="M423.5,344c-8.547,0-15.5,6.953-15.5,15.5s6.953,15.5,15.5,15.5s15.5-6.953,15.5-15.5S432.047,344,423.5,344z M423.5,360
		c-0.276,0-0.5-0.225-0.5-0.5s0.224-0.5,0.5-0.5s0.5,0.225,0.5,0.5S423.776,360,423.5,360z"/>
</g>
<g>
</g>
<g>
</g>
<g>
</g>
<g>
</g>
<g>
</g>
<g>
</g>
<g>
</g>
<g>
</g>
<g>
</g>
<g>
</g>
<g>
</g>
<g>
</g>
<g>
</g>
<g>
</g>
<g>
</g>
</svg>
