<?xml version="1.0" encoding="iso-8859-1"?>
<!-- Generator: Adobe Illustrator 19.0.0, SVG Export Plug-In . SVG Version: 6.00 Build 0)  -->
<svg version="1.1" id="Layer_1" xmlns="http://www.w3.org/2000/svg" xmlns:xlink="http://www.w3.org/1999/xlink" x="0px" y="0px"
	 viewBox="0 0 512 512" style="enable-background:new 0 0 512 512;" xml:space="preserve">
<g>
	<g>
		<path d="M119.462,290.133c-28.232,0-51.2,22.968-51.2,51.2c0,28.232,22.968,51.2,51.2,51.2s51.2-22.968,51.2-51.2
			C170.662,313.102,147.694,290.133,119.462,290.133z M119.462,358.4c-9.411,0-17.067-7.656-17.067-17.067
			c0-9.411,7.656-17.067,17.067-17.067c9.411,0,17.067,7.656,17.067,17.067C136.529,350.744,128.873,358.4,119.462,358.4z"/>
	</g>
</g>
<g>
	<g>
		<path d="M443.733,291.85V204.8c0-26.309-19.948-48.036-45.511-50.877V102.4c0-9.425-7.641-17.067-17.067-17.067
			s-17.067,7.641-17.067,17.067v51.2h-27.521l-26.354-79.061C305.56,60.579,292.547,51.2,277.832,51.2H136.533
			c-18.821,0-34.133,15.312-34.133,34.133c0,6.647,0,131.384,0,137.758C44.583,231.398,0,281.253,0,341.333
			C0,407.207,53.593,460.8,119.467,460.8c47.561,0,88.716-27.94,107.924-68.267h115.66c7.928,38.903,42.406,68.267,83.616,68.267
			c47.053,0,85.333-38.281,85.333-85.333C512,334.256,482.636,299.779,443.733,291.85z M238.933,85.333h38.898l29.368,88.102v48.432
			h-43.017c-3.8-4.594-7.826-9.02-12.027-13.222c-4.238-4.238-8.651-8.251-13.222-12.036V85.333z M136.533,85.333H204.8v88.798
			c-4.021-2.056-8.126-3.973-12.311-5.746c-17.912-7.589-36.671-12.271-55.956-14.008V85.333z M119.467,426.667
			c-47.053,0-85.333-38.281-85.333-85.333c0-47.053,38.281-85.333,85.333-85.333s85.333,38.281,85.333,85.333
			C204.8,388.386,166.519,426.667,119.467,426.667z M343.05,358.401H237.709c0.801-5.576,1.224-11.272,1.224-17.067
			c0-60.081-44.583-109.937-102.4-118.244v-34.422c14.683,1.622,28.966,5.352,42.639,11.146c18.286,7.748,34.72,18.84,48.847,32.966
			c5.005,5.005,9.704,10.398,13.973,16.036c0.015,0.02,0.028,0.039,0.044,0.059l0.289,0.383c3.599,4.767,9.244,7.135,14.816,6.742
			h67.124c9.425,0,17.067-7.641,17.067-17.067v-51.2h51.2c9.411,0,17.067,7.656,17.067,17.067v87.05
			C376.213,298.655,349.855,325.014,343.05,358.401z M426.667,426.667c-28.232,0-51.2-22.968-51.2-51.2s22.968-51.2,51.2-51.2
			c28.232,0,51.2,22.968,51.2,51.2S454.898,426.667,426.667,426.667z"/>
	</g>
</g>
<g>
</g>
<g>
</g>
<g>
</g>
<g>
</g>
<g>
</g>
<g>
</g>
<g>
</g>
<g>
</g>
<g>
</g>
<g>
</g>
<g>
</g>
<g>
</g>
<g>
</g>
<g>
</g>
<g>
</g>
</svg>
